[
    "000_AT_Utils",
    "000_TexturesUnlimited",
    "ActiveTextureManagement",
    "AllYall",
    "Astrogator",
    "AstronomersVisualPack",
    "AutoAGL",
    "BetterBurnTime",
    "BetterTimeWarp",
    "BoulderCo",
    "CameraTool",
    "CelestialShadows",
    "Chatterer",
    "CityLights",
    "ClickThroughBlocker",
    "Collide-o-Scope",
    "CollisionFX",
    "CommunityResourcePack",
    "CorrectCOL",
    "CraftManager",
    "DangerAlerts",
    "DarkMultiPlayer",
    "DE_IVAExtension",
    "DiscordRP",
    "DistantObject",
    "EasyVesselSwitch",
    "EditorExtensionsRedux",
    "EngineLight",
    "EnvironmentalVisualEnhancements",
    "EVAFollower",
    "ExperimentTracker",
    "FMRS",
    "FShangarExtender",
    "FinalFrontier",
    "FixDockingNodes",
    "FullAutoStrut",
    "GPOSpeedFuelPump",
    "GravityTurn",
    "JanitorsCloset",
    "Hyperspace",
    "KS3P",
    "KSPAlternateResourcePanel",
    "KSPSerialIO",
    "KSPSerialIO.dll",
    "KXAPI",
    "KerbalAlarmClock",
    "KerbalChangeLog",
    "KerbalEngineer",
    "KerbalJointReinforcement",
    "KerbalWindTunnel",
    "KerboKatz",
    "MiniAVC",
    "NavBallDockingAlignmentIndicator",
    "NavHud",
    "NavyFish",
    "Parallax",
    "Parallax_StockTextures",
    "PersistentRotation",
    "Pilot Assistant",
    "PlanetShine",
    "PoodsSkyboxes",
    "PreciseEditor",
    "PreciseManeuver",
    "PreciseNode",
    "RCSBuildAid",
    "QuickCursorHider",
    "RCSSounds",
    "RealPlume",
    "RealPlume-Stock",
    "ReentryParticleEffect",
    "SVT",
    "ScienceAlert",
    "ScifiVisualEnchancements",
    "SerialPort.dll",
    "ShipManifest",
    "Sigma",
    "ShowFPS",
    "SmokeScreen",
    "Spectra",
    "StockVisualEnhancements",
    "TacFuelBalancer",
    "TextureReplacer",
    "ThrottleControlledAvionics",
    "TimeControl",
    "ToadciusTools",
    "Toolbar",
    "ToolbarControl",
    "TrackingStationEvolved",
    "Trajectories",
    "TransferWindowPlanner",
    "TriggerTech",
    "TweakableEverything",
    "TUFX",
    "TURD",
    "UpsilonFairings",
    "WarpEverywhere",
    "Waterfall",
    "WaypointManager",
    "XyphosAerospace",
    "scatterer",
    "ModuleManager",
    "MechJeb",
    "BetterLoadSaveGame",
    "000_FilterExtensions",
    "000_FilterExtensions_Configs",
    "MoarFilterExtensionConfigs",
    "zFinal_FilterExtensions",
    "WarpEverywhere",
    "B9PartSwitch",
    "IndicatorLights",
    "ShipEffectsContinued",
    "SpaceTuxLibrary",
    "TimeControl"
]